{
	"info": {
		"_postman_id": "43c94077-9745-4eef-bc74-ccbbbe64d63b",
		"name": "API-Estados",
		"schema": "https://schema.getpostman.com/json/collection/v2.1.0/collection.json"
	},
	"item": [
		{
			"name": "http://localhost:8080/",
			"event": [
				{
					"listen": "test",
					"script": {
						"exec": [
							"pm.test(\"Status code is 200\", function () {",
							"    pm.response.to.have.status(200);",
							"});"
						],
						"type": "text/javascript"
					}
				}
			],
			"request": {
				"method": "GET",
				"header": [],
				"url": {
					"raw": "http://localhost:{{port}}/",
					"protocol": "http",
					"host": [
						"localhost"
					],
					"port": "{{port}}",
					"path": [
						""
					]
				}
			},
			"response": []
		}
	],
	"variable": [
		{
			"key": "port",
			"value": "8080"
		}
	]
}